…
You can read and combine all files in one step with `vroom()`.

``` r
dir_ls(out) %>% vroom()
#> Rows: 502
#> Columns: 29
#> Delimiter: "\t"
#> chr [20]: id_loan, id_direct_loantaker, name_direct_loantaker, id_intermediate_parent_1, n...
#> dbl [ 6]: rowid, loan_size_outstanding, loan_size_credit_limit, sector_classification_dire...
#> lgl [ 3]: name_project, lei_direct_loantaker, isin_direct_loantaker
#> 
#> Use `spec()` to retrieve the guessed column specification
#> Pass a specification to the `col_types` argument to quiet this message
#> # A tibble: 502 x 29
#>    rowid id_loan id_direct_loant… name_direct_loa… id_intermediate…
#>    <dbl> <chr>   <chr>            <chr>            <chr>           
#>  1     1 L1      C294             Yuamen Xinneng … <NA>            
#>  2     3 L3      C292             Yuama Ethanol L… IP5             
#>  3     3 L3      C292             Yuama Ethanol L… IP5             
#>  4     5 L5      C305             Yukon Energy Co… <NA>            
#>  5     5 L5      C305             Yukon Energy Co… <NA>            
#>  6     6 L6      C304             Yukon Developme… <NA>            
#>  7     6 L6      C304             Yukon Developme… <NA>            
#>  8     8 L8      C303             Yueyang City Co… <NA>            
#>  9     9 L9      C301             Yuedxiu Corp One IP10            
#> 10    10 L10     C302             Yuexi County AA… <NA>            
#> # … with 492 more rows, and 24 more variables:
#> #   name_intermediate_parent_1 <chr>, id_ultimate_parent <chr>,
#> #   name_ultimate_parent <chr>, loan_size_outstanding <dbl>,
#> #   loan_size_outstanding_currency <chr>, loan_size_credit_limit <dbl>,
#> #   loan_size_credit_limit_currency <chr>, sector_classification_system <chr>,
#> #   sector_classification_input_type <chr>,
#> #   sector_classification_direct_loantaker <dbl>, fi_type <chr>,
#> #   flag_project_finance_loan <chr>, name_project <lgl>,
#> #   lei_direct_loantaker <lgl>, isin_direct_loantaker <lgl>, chunk <dbl>,
…
