…
When you are ready, combine all results and continue the analysis.

``` r
sectors <- dir_ls("sectors") %>% vroom()
#> Rows: 184
#> Columns: 15
#> Delimiter: "\t"
#> chr [12]: id_ultimate_parent, name_ultimate_parent, id_direct_loantaker, name_direct_loant...
#> dbl [ 3]: rowid, sector_classification_direct_loantaker, score
#> 
#> Use `spec()` to retrieve the guessed column specification
#> Pass a specification to the `col_types` argument to quiet this message
sectors
#> # A tibble: 184 x 15
#>    rowid id_ultimate_par… name_ultimate_p… id_direct_loant… name_direct_loa…
#>    <dbl> <chr>            <chr>            <chr>            <chr>           
#>  1   316 UP7              Airasia X Bhd    C3               Airasia X Bhd   
#>  2   316 UP7              Airasia X Bhd    C3               Airasia X Bhd   
#>  3   317 UP8              Airbaltic        C4               Airbaltic       
#>  4   317 UP8              Airbaltic        C4               Airbaltic       
#>  5   318 UP9              Airblue          C5               Airblue         
#>  6   318 UP9              Airblue          C5               Airblue         
#>  7   319 UP10             Airborne Of Swe… C6               Airborne Of Swe…
#>  8   319 UP10             Airborne Of Swe… C6               Airborne Of Swe…
#>  9   320 UP11             Airbus Transpor… C7               Airbus Transpor…
#> 10   320 UP11             Airbus Transpor… C7               Airbus Transpor…
#> # … with 174 more rows, and 10 more variables:
#> #   sector_classification_system <chr>,
#> #   sector_classification_direct_loantaker <dbl>, id_2dii <chr>, level <chr>,
#> #   sector <chr>, sector_ald <chr>, name <chr>, name_ald <chr>, score <dbl>,
#> #   source <chr>
```
…
But we can treat it as a single file because `vroom()` can read them all
at once and produce a single data frame.

``` r
rowwise <- dir_ls("rowwise") %>% vroom()
#> Rows: 22
#> Columns: 15
#> Delimiter: "\t"
#> chr [12]: id_ultimate_parent, name_ultimate_parent, id_direct_loantaker, name_direct_loant...
#> dbl [ 3]: rowid, sector_classification_direct_loantaker, score
#> 
#> Use `spec()` to retrieve the guessed column specification
#> Pass a specification to the `col_types` argument to quiet this message
rowwise
#> # A tibble: 22 x 15
#>    rowid id_ultimate_par… name_ultimate_p… id_direct_loant… name_direct_loa…
#>    <dbl> <chr>            <chr>            <chr>            <chr>           
#>  1     1 UP15             Alpine Knits In… C294             Yuamen Xinneng …
#>  2     1 UP32             Bhagwan Energy … C302             Yuexi County AA…
#>  3     1 UP81             Dynegy Midwest … C309             Yuxi ounty Liua…
#>  4     1 UP269            Summit Meghnagh… C298             Yuba vdf County…
#>  5     1 UP69             Consorcio Integ… C297             Yuba City Cogen…
#>  6     1 UP69             Consorcio Integ… C297             Yuba City Cogen…
#>  7     1 UP3              Affinity Renewa… C296             Yuasfnjiang Ele…
#>  8     1 UP196            Noshiro Forest … C295             Yuanbsaoshan Po…
#>  9     1 UP196            Noshiro Forest … C295             Yuanbsaoshan Po…
#> 10     1 UP196            Noshiro Forest … C295             Yuanbsaoshan Po…
#> # … with 12 more rows, and 10 more variables:
#> #   sector_classification_system <chr>,
#> #   sector_classification_direct_loantaker <dbl>, id_2dii <chr>, level <chr>,
#> #   sector <chr>, sector_ald <chr>, name <chr>, name_ald <chr>, score <dbl>,
#> #   source <chr>
…
## Arbitrary “chunks” of loanbook data

Feeding `match_name()` with individual can be too slow. You can feed
`match_name()` with “chunks” of your `loanbook` dataset that are bigger
than a single row, yet small enough you can process each chunk with
whatever memory you have.

``` r
chunkid <- function(n) as.integer(cut(row_number(), breaks = n))

chunked <- lbk_smaller %>% mutate(chunkid = chunkid(100))

chunked %>% nest_by(chunkid)
#> # A tibble: 100 x 2
#> # Rowwise:  chunkid
#>    chunkid               data
#>      <int> <list<tbl_df[,6]>>
#>  1       1            [4 × 6]
#>  2       2            [3 × 6]
#>  3       3            [3 × 6]
#>  4       4            [3 × 6]
#>  5       5            [3 × 6]
#>  6       6            [4 × 6]
#>  7       7            [3 × 6]
#>  8       8            [3 × 6]
#>  9       9            [3 × 6]
#> 10      10            [3 × 6]
#> # … with 90 more rows
```
…
chunks
#> # A tibble: 497 x 16
#>    rowid id_ultimate_par… name_ultimate_p… id_direct_loant… name_direct_loa…
#>    <dbl> <chr>            <chr>            <chr>            <chr>           
#>  1     1 UP15             Alpine Knits In… C294             Yuamen Xinneng …
#>  2     3 UP288            University Of I… C292             Yuama Ethanol L…
#>  3     1 UP33             Bhushan Energy … C274             Yosemite Unifie…
#>  4     1 UP33             Bhushan Energy … C274             Yosemite Unifie…
#>  5     2 UP5              Agni Steels Pri… C273             Yorkshire Windp…
#>  6     2 UP5              Agni Steels Pri… C273             Yorkshire Windp…
#>  7     3 UP190            Nagpur Tools Pv… C272             Yorkshire Water…
#>  8     3 UP190            Nagpur Tools Pv… C272             Yorkshire Water…
#>  9     1 UP8              Airbaltic        C4               Airbaltic       
#> 10     1 UP8              Airbaltic        C4               Airbaltic       
#> # … with 487 more rows, and 11 more variables:
#> #   sector_classification_system <chr>,
#> #   sector_classification_direct_loantaker <dbl>, chunkid <dbl>, id_2dii <chr>,
#> #   level <chr>, sector <chr>, sector_ald <chr>, name <chr>, name_ald <chr>,
#> #   score <dbl>, source <chr>
```
…
``` r
percent <- function(x) x / sum(x) * 100

top80 <- lbk_full %>% 
  arrange(desc(loan_size_credit_limit), desc(loan_size_outstanding)) %>% 
  mutate(
    cum_credit_limit = cumsum(percent(loan_size_credit_limit)),
    cum_outstanding  = cumsum(percent(loan_size_outstanding))
  ) %>% 
  filter(cum_credit_limit <= 80, cum_outstanding <= 80)

top80 %>% 
  select(id_loan, starts_with("cum_"), everything())
#> # A tibble: 207 x 21
#>    id_loan cum_credit_limit cum_outstanding id_direct_loant… name_direct_loa…
#>    <chr>              <dbl>           <dbl> <chr>            <chr>           
#>  1 L239               0.401           0.422 C164             Sanshui Beijian…
#>  2 L255               0.802           0.845 C110             Karnataka Power…
#>  3 L47                1.20            1.27  C257             Yolo County Flo…
#>  4 L81                1.60            1.69  C142             Nandi Roller Fl…
#>  5 L3                 2.00            2.11  C292             Yuama Ethanol L…
#>  6 L265               2.41            2.53  C20              Cloud Peak Ener…
#>  7 L88                2.81            2.95  C135             Nampower        
#>  8 L261               3.21            3.37  C22              Coronado Coal L…
#>  9 L84                3.61            3.79  C139             Mom and Pop Fam…
#> 10 L258               4.01            4.20  C13              Small Power Com…
#> # … with 197 more rows, and 16 more variables: id_intermediate_parent_1 <chr>,
#> #   name_intermediate_parent_1 <chr>, id_ultimate_parent <chr>,
#> #   name_ultimate_parent <chr>, loan_size_outstanding <dbl>,
#> #   loan_size_outstanding_currency <chr>, loan_size_credit_limit <dbl>,
#> #   loan_size_credit_limit_currency <chr>, sector_classification_system <chr>,
#> #   sector_classification_input_type <chr>,
#> #   sector_classification_direct_loantaker <dbl>, fi_type <chr>,
#> #   flag_project_finance_loan <chr>, name_project <lgl>,
#> #   lei_direct_loantaker <lgl>, isin_direct_loantaker <lgl>
```
…
